[
  {
    "ID": 1,
    "name": "Fallabela",
    "imagenes": "https://i0.wp.com/ail.ens.org.co/wp-content/uploads/sites/3/2020/05/Acuerdo-en-Falabella.jpg?resize=847%2C450&ssl=1",
    "description": "Everything you are looking for in Electro and Technology, the latest in Fashion and Footwear and much more.",
    "website": "https://www.falabella.com.co/",
    "phone": "3016334422",
    "address": "Av. Boyacá # 80 - 94",
    "lat": -74.08675113,
    "long": 4.694385855,
    "gifts": []
  },
  {
    "ID": 2,
    "name": "Éxito",
    "imagenes": "https://img.lalr.co/cms/2020/06/14111446/exito-1lr.jpg",
    "description": "The store in Colombia with the best televisions, cell phones, mattresses and more.",
    "website": "https://www.exito.com/",
    "phone": "7562666",
    "address": "Calle 52 # 13 - 70",
    "lat": -74.06519783,
    "long": 4.644055789,
    "gifts": []
  },
  {
    "ID": 3,
    "name": "Carulla",
    "imagenes": "https://img.lalr.co/cms/2019/04/15175402/carulla-exterior.jpg",
    "description": "The most delicious products for your market, a wide variety of wines and liquors, cell phones, TVs and more.",
    "website": "https://www.carulla.com/",
    "phone": "3216283992",
    "address": "Calle 85 # 15 - 29",
    "lat": -74.05553578,
    "long": 4.669939366,
    "gifts": []
  },
  {
    "ID": 4,
    "name": "Ktronix",
    "imagenes": "https://arkadiacentrocomercial.com/wp-content/uploads/2021/09/Ktronix.jpg",
    "description": "First store specialized in technology. Find offers on appliances and technology.",
    "website": "https://www.ktronix.com/",
    "phone": "4073033",
    "address": "Cra. 68B # 25B - 80",
    "lat": -74.11037944,
    "long": 4.666060168,
    "gifts": []
  },
  {
    "ID": 5,
    "name": "Zara",
    "imagenes": "https://as01.epimg.net/diarioas/imagenes/2021/11/23/actualidad/1637697885_146176_1637698333_noticia_normal_recorte1.jpg",
    "description": "The latest trends for women, men, children and next season's editorials.",
    "website": "https://www.zara.com",
    "phone": "9156643",
    "address": "Calle 82 # 12 - 22",
    "lat": -74.05546567,
    "long": 4.667170548,
    "gifts": []
  },
  {
    "ID": 6,
    "name": "Deli",
    "imagenes": "https://res.cloudinary.com/civico/image/upload/c_fit,f_auto,fl_lossy,h_1200,q_auto:low,w_1200/v1397416056/entity/image/file/036/000/534ae07028f813d92d000036.jpg",
    "description": "Ponqués, cakes, breads, pastries in general.",
    "website": "https://www.deli.com.co/",
    "phone": "3155323225",
    "address": "Calle 53B # 25 - 21",
    "lat": -74.07700334,
    "long": 4.641406893,
    "gifts": []
  },
  {
    "ID": 8,
    "name": "Adidas",
    "imagenes": "https://centromayor.com.co/sites/default/files/locales/local/images/2021-04-26/logo_adidas_centro_mayor.jpg",
    "description": "Find sportswear, shoes and accessories, created with technology and design.",
    "website": "https://www.adidas.co/",
    "phone": "3182406168",
    "address": "Cra 7 # 17 - 34",
    "lat": -74.07189258,
    "long": 4.604215061,
    "gifts": []
  },
  {
    "ID": 7,
    "name": "Nike",
    "imagenes": "https://www.latercera.com/resizer/AjFEYn_-o2IaKRJgG4tuUly4TuA=/900x600/smart/cloudfront-us-east-1.images.arcpublishing.com/copesa/DY5JBPBSC7BRT6EZHZHXUL5I2I.jpg",
    "description": "Nike inspires athletes around the world by offering innovative products, experiences and services.",
    "website": "https://www.nike.com",
    "phone": "7963840",
    "address": "Calle 185 # 45 - 03",
    "lat": -74.04611076,
    "long": 4.75895116,
    "gifts": []
  },
  {
    "ID": 9,
    "name": "Studio F",
    "imagenes": "https://www.modaes.es/files/000_2016/studio%20f/studiof-tienda-mexico-728.jpg",
    "description": "Find jeans, jumpsuits, pants and dresses.",
    "website": "https://www.studiof.com.co/",
    "phone": "4643653",
    "address": "C.C Titán Plaza - Local 2-17",
    "lat": -74.08588698,
    "long": 4.694426014,
    "gifts": []
  },
  {
    "ID": 10,
    "name": "Lego",
    "imagenes": "https://www.laguiago.com/wp-content/uploads/2021/09/Exterior-LEGO%C2%AE-Store-Barcelona-1024x576.jpg",
    "description": "Official website of the famous building brick with links to products, games, videos, the LEGO® Store, LEGO history, fan creations.",
    "website": "https://tiendalego.com.co/",
    "phone": "6050872",
    "address": "Calle 185 # 45 - 03, Local 2-75",
    "lat": -74.04612294,
    "long": 4.759832554,
    "gifts": []
  },
  {
    "ID": 11,
    "name": "Farmatodo",
    "imagenes": "https://img.lalr.co/cms/2018/11/07175526/farmartodo.jpg",
    "description": "Self-service drugstore chain specialized in health, beauty, personal care and baby care products.",
    "website": "https://www.farmatodo.com.co/",
    "phone": "7469000",
    "address": "Calle 26 # 62 - 49 - Local 1-67",
    "lat": -74.11884301,
    "long": 4.680021738,
    "gifts": []
  },
  {
    "ID": 12,
    "name": "Homecenter",
    "imagenes": "https://i0.wp.com/chocale.cl/wp-content/uploads/2019/03/sodimac-homecenter.jpg?resize=800%2C500&ssl=1",
    "description": "Find products for home and construction projects.",
    "website": "https://www.homecenter.com.co",
    "phone": "3208899933",
    "address": " Autopista Norte No. 175B - 50 ",
    "lat": -74.0460187,
    "long": 4.749864674,
    "gifts": []
  },
  {
    "ID": 13,
    "name": "Miniso",
    "imagenes": "https://centrocomercialfundadores.com/wp-content/uploads/2021/02/DSC_0046-768x512.jpg",
    "description": "Shop technology items, household products, everything for your personal care and much more.",
    "website": "https://www.miniso.co/",
    "phone": "7467478",
    "address": "Calle 19 # 2A - 10",
    "lat": -74.0662934,
    "long": 4.603117958,
    "gifts": []
  },
  {
    "ID": 14,
    "name": "Unilago",
    "imagenes": "https://scontent.fbog2-5.fna.fbcdn.net/v/t1.6435-9/37715730_1932256696813110_8069867606401613824_n.jpg?_nc_cat=103&ccb=1-5&_nc_sid=e3f864&_nc_eui2=AeFYwslavkyptc3BdPk2dMSDe2dbbtJPMOF7Z1tu0k8w4a5mOaUflRX2FbGpcyQy_w3U5wsS__tzQCpXue_zIdpa&_nc_ohc=dEQ5gAwfxz0AX9ZQyfu&_nc_ht=scontent.fbog2-5.fna&oh=00_AT_7VUWG5DpDv-3wXm8b72XCIRzyg4PUalWWusv7-iLmpQ&oe=62626ADC",
    "description": "Technology center with a wide variety of electronic items, from cell phones to computers.",
    "website": "https://unilago.com/",
    "phone": "6103349",
    "address": "Cra. 15 # 78 - 33",
    "lat": -74.05806572,
    "long": 4.664839874,
    "gifts": []
  },
  {
    "ID": 15,
    "name": "Hojas",
    "imagenes": "https://res.cloudinary.com/civico/image/upload/c_fit,f_auto,fl_lossy,h_1200,q_auto:low,w_1200/v1455548165/entity/image/file/067/000/56c1e7042f41f396fc000067.jpg",
    "description": "Enter and discover the best designs that HOJAS has for you.",
    "website": "https://www.hojas.com.co/",
    "phone": "3219683883",
    "address": "Calle 74A # 23 - 39",
    "lat": -74.05627724,
    "long": 4.66594895,
    "gifts": []
  },
  {
    "ID": 16,
    "name": "Uniandes Store",
    "imagenes": "https://uniandes.edu.co/sites/default/files/u5940/tienda_uniandes_centro_civico-4500.jpg",
    "description": "Buy books, institutional papers, technology, stationery items and products to go to your classes.",
    "website": "https://tienda.uniandes.edu.co",
    "phone": "3394949",
    "address": "Cra. 1 # 18A - 12",
    "lat": -74.06522166,
    "long": 4.601942087,
    "gifts": []
  },
  {
    "ID": 17,
    "name": "Carulla Calle 19",
    "imagenes": "https://res.cloudinary.com/civico/image/upload/c_fit,f_auto,fl_lossy,h_1200,q_auto:low,w_1200/v1/entity/image/file/987/000/520a51a931e93c0dc6000987.jpg",
    "description": "The most delicious products for your market, a wide variety of wines and liquors, cell phones, TVs and more.",
    "website": "https://www.carulla.com",
    "phone": "3216283992",
    "address": "Cl. 19 # 5 - 30",
    "lat": -74.07046071,
    "long": 4.604881874,
    "gifts": []
  },
  {
    "ID": 18,
    "name": "Gef",
    "imagenes": "https://sannicolas.co/wp-content/uploads/2020/12/Gef.jpg",
    "description": "Discover comfortable silhouettes full of color to combine them with your plans.",
    "website": "https://www.gef.co/",
    "phone": "6047055",
    "address": "Cra. 11 # 82 - 71, Local 321",
    "lat": -74.05408731,
    "long": 4.666044101,
    "gifts": []
  },
  {
    "ID": 19,
    "name": "Bella Piel",
    "imagenes": "https://www.portafolio.co/files/article_multimedia/files/crop/uploads/2019/10/09/5d9e74b4c0c21.r_1570665691423.255-0-1000-560.jpeg",
    "description": "Pharmaceutical, medicinal cosmetic, dermatological and toiletries.",
    "website": "https://www.bellapiel.com.co",
    "phone": "6124422",
    "address": "C.C. Multiplaza, Local A-150",
    "lat": -74.12553653,
    "long": 4.652276059,
    "gifts": []
  },
  {
    "ID": 20,
    "name": "Cromantic",
    "imagenes": "https://img.lalr.co/cms/2018/05/24204835/cromantic.jpg?size=sm",
    "description": "Beauty supermarket with quality and high performance in hair products, makeup, nails, accessories and dermo.",
    "website": "https://www.cromantic.com/",
    "phone": "7455947",
    "address": "Calle 80 # 100 - 36",
    "lat": -74.11743386,
    "long": 4.720987519,
    "gifts": []
  }
]
